org/springboottrial/HelloController.class
org/springboottrial/topics/TopicService.class
org/springboottrial/topics/TopicController.class
org/springboottrial/topics/Topic.class
org/springboottrial/APIMain.class
